Classification Via Penalized Logistic Regression & Random Forest
…
rf_best

## # A tibble: 1 x 2
##    mtry min_n
##   <int> <int>
## 1     3    18

Get Predictions

rf_res %>% 
  tune::collect_predictions()

## # A tibble: 950 x 7
##    id         .pred_0 .pred_1  .row  mtry min_n sig_change_self_efficacy
##    <chr>        <dbl>   <dbl> <int> <int> <int> <fct>                   
##  1 validation   0.426   0.574     4    17    22 1                       
##  2 validation   0.295   0.705    12    17    22 1                       
##  3 validation   0.509   0.491    18    17    22 1                       
##  4 validation   0.705   0.295    19    17    22 0                       
##  5 validation   0.470   0.530    31    17    22 1                       
##  6 validation   0.548   0.452    39    17    22 0                       
##  7 validation   0.649   0.351    44    17    22 0                       
##  8 validation   0.338   0.662    53    17    22 0                       
##  9 validation   0.585   0.415    55    17    22 0                       
## 10 validation   0.609   0.391    57    17    22 0                       
## # … with 940 more rows
…
