Multiple Linear Regression
…
 conf_int_pred<- lr_model %>% 
  stats::predict(new_data = test_baked, type = "conf_int") 

Combine Test Data Set with Model Predictions & CIs

lm_predictions<- test_baked %>% 
  dplyr::bind_cols(pred) %>% 
  dplyr::bind_cols(conf_int_pred)

#View Actual, Predicted & CIs

lm_predictions %>% dplyr::select(end_pseq_total, .pred, .pred_lower, .pred_upper)

## # A tibble: 69 x 4
##    end_pseq_total .pred .pred_lower .pred_upper
##             <dbl> <dbl>       <dbl>       <dbl>
##  1           39    49.2        44.5        54.0
##  2           28    41.6        36.6        46.6
##  3           31    36.9        31.4        42.4
##  4           40    31.6        27.3        35.8
##  5           10    27.2        23.4        31.1
##  6           26    19.2        14.6        23.7
##  7           32.2  29.9        25.8        34.0
##  8           10    22.8        18.0        27.6
##  9           56    38.5        32.4        44.6
## 10           25    24.9        17.4        32.3
## # … with 59 more rows
…
