Plot Crosstabulations For All Categorical Variables Against A Target Categorical Variable Simultaneously
…
      Modern Multiple Linear Regression Workflow

      Penalized Logistic Regression & Random Forest

Code 

Download Rmd

Plot Crosstabulations For All Categorical Variables Against A Target Categorical Variable Simultaneously

Process Data

(all_cross_tab_tbl<- fht::calc_crosscount_all(data, sex))

## # A tibble: 43 x 5
##    category                         sex        n   pct total_n
##    <fct>                            <fct>  <int> <dbl>   <int>
##  1 pain_duration_12 months-2 years  Female    30 57.7       52
##  2 pain_duration_12 months-2 years  Male      21 40.4       52
##  3 pain_duration_12 months-2 years  <NA>       1  1.92      52
##  4 pain_duration_2-5 years          Female    48 66.7       72
##  5 pain_duration_2-5 years          Male      24 33.3       72
##  6 pain_duration_3-12 Months        Female    28 57.1       49
##  7 pain_duration_3-12 Months        Male      21 42.9       49
##  8 pain_duration_Less than 3 months Female     5 62.5        8
##  9 pain_duration_Less than 3 months Male       3 37.5        8
## 10 pain_duration_More than 5 years  Female    50 64.1       78
## # … with 33 more rows
…
